------------------------------
-:        djkute151092       :-
-:                           :-
------------------------------


1. Disable your internet or WiFi connection

2. Add the following entry to your HOSTS file without the quotes "127.0.0.1 updates.connectify.me"

3. Install Connectify Dispatch

4. Use the following details to register

email: rene.bidner@hotmail.com
serial: QE4943-K24T79-KKJKKA-M2NQKW-XWVZYT-Z8DN8J-6NEN1A-UCRZ1A-EM8E7J-AV529K-ZEDV52-4EYYFV-T4UE7G-AFVAYW-77G5B4-JKNBJS-Z4MEX7-HRB2TT-N7GVF4-UBXNJS-288MXL-G5GAPU-3UQ

5. Go into "%ProgramFiles%\Connectify\plugins\" and remove the 'dispatch' dir

6. Enjoy


------------------------------
-:      Thanks/Credits      :-
------------------------------


Team DOA for providing the serial


------------------------------
-:        Important         :-
------------------------------


IF YOU LIKE IT, AND CAN AFFORD IT, SUPPORT THE MAKERS AND BUY IT!